%YAML 1.1
%TAG !u! tag:unity3d.com,2011:
--- !u!114 &11400000
MonoBehaviour:
  m_ObjectHideFlags: 0
  m_CorrespondingSourceObject: {fileID: 0}
  m_PrefabInstance: {fileID: 0}
  m_PrefabAsset: {fileID: 0}
  m_GameObject: {fileID: 0}
  m_Enabled: 1
  m_EditorHideFlags: 0
  m_Script: {fileID: 11500000, guid: 8405f336bf99485f82ee36fa57d9cc87, type: 3}
  m_Name: BuffParamsSettings
  m_EditorClassIdentifier: 
  _buffParams:
    reorderableList:
      canAdd: 1
      canRemove: 1
      draggable: 1
      expandable: 1
      multipleSelection: 1
      isExpanded: 1
      label:
        m_Text: Keys
        m_Image: {fileID: 0}
        m_Tooltip: 
        m_TextWithWhitespace: "Keys\u200B"
      headerHeight: 18
      footerHeight: 13
      slideEasing: 0.15
      verticalSpacing: 2
      showDefaultBackground: 1
      elementDisplayType: 0
      elementNameProperty: 
      elementNameOverride: 
      elementIcon: {fileID: 0}
    reqReferences: {fileID: 0}
    isExpanded: 1
    _keyValues: 0100000000000000020000000300000004000000
    _keys: 0100000000000000020000000300000004000000
    _values:
    - {fileID: 11400000, guid: 91c2d092119ea3f469832b492b76cd3a, type: 2}
    - {fileID: 11400000, guid: a3f9985c4cee7634ba609746c0828115, type: 2}
    - {fileID: 11400000, guid: 1322d3cd31a3e58489f7b734c992b37b, type: 2}
    - {fileID: 11400000, guid: e5a847d1a2a72e54ea4a2d39f958070c, type: 2}
    - {fileID: 11400000, guid: df3785a7cc213b44cab69d54e48b586a, type: 2}
