%YAML 1.1
%TAG !u! tag:unity3d.com,2011:
--- !u!114 &11400000
MonoBehaviour:
  m_ObjectHideFlags: 0
  m_CorrespondingSourceObject: {fileID: 0}
  m_PrefabInstance: {fileID: 0}
  m_PrefabAsset: {fileID: 0}
  m_GameObject: {fileID: 0}
  m_Enabled: 1
  m_EditorHideFlags: 0
  m_Script: {fileID: 11500000, guid: c47be863ed8a4d47b6b028d64dc43576, type: 3}
  m_Name: CharacterSettings
  m_EditorClassIdentifier: 
  _characters:
    reorderableList:
      canAdd: 1
      canRemove: 1
      draggable: 1
      expandable: 1
      multipleSelection: 1
      isExpanded: 1
      label:
        m_Text: Keys
        m_Image: {fileID: 0}
        m_Tooltip: 
        m_TextWithWhitespace: "Keys\u200B"
      headerHeight: 18
      footerHeight: 13
      slideEasing: 0.15
      verticalSpacing: 2
      showDefaultBackground: 1
      elementDisplayType: 0
      elementNameProperty: 
      elementNameOverride: 
      elementIcon: {fileID: 0}
    reqReferences: {fileID: 0}
    isExpanded: 1
    _keyValues: 0000000001000000
    _keys: 0000000001000000
    _values:
    - {fileID: 5840604060813606095, guid: 937745902dca7a0449ee385fb0fae034, type: 3}
    - {fileID: 6107952003653235265, guid: 48d6dfc56737bf74dbb48f33d39061a1, type: 3}
