%YAML 1.1
%TAG !u! tag:unity3d.com,2011:
--- !u!114 &11400000
MonoBehaviour:
  m_ObjectHideFlags: 0
  m_CorrespondingSourceObject: {fileID: 0}
  m_PrefabInstance: {fileID: 0}
  m_PrefabAsset: {fileID: 0}
  m_GameObject: {fileID: 0}
  m_Enabled: 1
  m_EditorHideFlags: 0
  m_Script: {fileID: 11500000, guid: 254bde0487794f0e81e61e4d4be1c15e, type: 3}
  m_Name: VampirismSelfData
  m_EditorClassIdentifier: 
  _duration: 3
  _selfArmorReduce: 25
  _vampirismIncrease: 50
